{
  "pager": {
    "page": 3,
    "pageCount": 4,
    "total": 184,
    "pageSize": 50,
    "nextPage": "http://192.168.19.18:1971/api/categoryOptionCombos?page=4",
    "prevPage": "http://192.168.19.18:1971/api/categoryOptionCombos?page=2"
  },
  "categoryOptionCombos": [
    {
      "id": "R5Zd6HBAi4x",
      "displayName": "Iron and Folic Acid, Recieved"
    },
    {
      "id": "dea6aYDVSfo",
      "displayName": "Kid"
    },
    {
      "id": "zmioNFEGCmE",
      "displayName": "Left New Method Taken"
    },
    {
      "id": "ip04bzGTrPX",
      "displayName": "Left None taken"
    },
    {
      "id": "QNEEEoxAnzs",
      "displayName": "less than 40, greater than 6"
    },
    {
      "id": "ZSeaNvmXIiB",
      "displayName": "less then 6"
    },
    {
      "id": "lB0hF1v7fbX",
      "displayName": "live"
    },
    {
      "id": "pMl2aPcXwWM",
      "displayName": "m"
    },
    {
      "id": "gT1YC8fsWsa",
      "displayName": "Male, adult"
    },
    {
      "id": "hVMG0QyuwWE",
      "displayName": "Male, Kid"
    },
    {
      "id": "oGg45FlmqmP",
      "displayName": "Male, old"
    },
    {
      "id": "uCMd8B8pdhR",
      "displayName": "male type"
    },
    {
      "id": "UcgIE8d3JsC",
      "displayName": "male type, greater than 40"
    },
    {
      "id": "lEOiJAi5bX4",
      "displayName": "male type, less than 40, greater than 6"
    },
    {
      "id": "As8DkzgBpT2",
      "displayName": "male type, less then 6"
    },
    {
      "id": "COVnZETuoyz",
      "displayName": "Male, young"
    },
    {
      "id": "w4XmvbpHVnz",
      "displayName": "malleee, greater than 40"
    },
    {
      "id": "ynQvWjUCpDD",
      "displayName": "malleee, less40"
    },
    {
      "id": "szTsfaktZ4q",
      "displayName": "malleee, less6"
    },
    {
      "id": "U8hoyXevM6z",
      "displayName": "malleee, less than 40, greater than 6"
    },
    {
      "id": "iYixJNRfNd5",
      "displayName": "malleee, less then 6"
    },
    {
      "id": "cfn2JoQ26Gg",
      "displayName": "malleee, more40"
    },
    {
      "id": "zZqT0euK89W",
      "displayName": "Misoprostol, Combine minus"
    },
    {
      "id": "Jc689D1f8PF",
      "displayName": "Misoprostol, Combine plus"
    },
    {
      "id": "Xbhs9EtwYyu",
      "displayName": "Misoprostol, Distribution"
    },
    {
      "id": "o3lm859FXVD",
      "displayName": "Misoprostol, Empty stock"
    },
    {
      "id": "R44GgVHxwvP",
      "displayName": "Misoprostol, Empty stock cause"
    },
    {
      "id": "kOTikdxkMjL",
      "displayName": "Misoprostol, Previous stock"
    },
    {
      "id": "qY76L0ydB3V",
      "displayName": "Misoprostol, Recieved"
    },
    {
      "id": "FovdI3yBYO6",
      "displayName": "MNP, Combine minus"
    },
    {
      "id": "pdXqh3hZjz4",
      "displayName": "MNP, Combine plus"
    },
    {
      "id": "jmuKBCUdB1A",
      "displayName": "MNP, Distribution"
    },
    {
      "id": "YuWileUfJeN",
      "displayName": "MNP, Empty stock"
    },
    {
      "id": "GD3VctmHve7",
      "displayName": "MNP, Empty stock cause"
    },
    {
      "id": "WSAVtgYQdOd",
      "displayName": "MNP, Previous stock"
    },
    {
      "id": "zWF0sclK5ZN",
      "displayName": "MNP, Recieved"
    },
    {
      "id": "yVpPp8S4nU8",
      "displayName": "Mother"
    },
    {
      "id": "Ql33PTY481Q",
      "displayName": "Mother, Information"
    },
    {
      "id": "T8syet8HCyJ",
      "displayName": "Mother, Service"
    },
    {
      "id": "DHJ5tZVSSsl",
      "displayName": "New"
    },
    {
      "id": "TiCMh5Usf76",
      "displayName": "Normal"
    },
    {
      "id": "GYwHYtWF14W",
      "displayName": "old"
    },
    {
      "id": "eUVeiCqImO9",
      "displayName": "old"
    },
    {
      "id": "jxUVAqMdWPL",
      "displayName": "one"
    },
    {
      "id": "v0UdL4fyyET",
      "displayName": "one, one, four, one"
    },
    {
      "id": "JNnd3aNLx8H",
      "displayName": "one, one, four, one, three"
    },
    {
      "id": "jPx249Gf0mU",
      "displayName": "one, one, four, two, one"
    },
    {
      "id": "b2PviaXpzue",
      "displayName": "one, one, four, two, one, three, three"
    },
    {
      "id": "kLTdVFqLpBq",
      "displayName": "OPV_3"
    },
    {
      "id": "qJwwOOLG36Y",
      "displayName": "OPV_4"
    }
  ]
}